…
```r
race
```

```
## # A tibble: 26,410 × 22
##    Bib   Name    Age `M/F` City  State Country `5K`   `10K` `15K` `20K` Half    
##    <chr> <chr> <dbl> <chr> <chr> <chr> <chr>   <time> <chr> <chr> <chr> <time>  
##  1 11    Kiru…    24 M     Keri… <NA>  KEN     15'25" 0:30… 0:45… 1:01… 01:04:35
##  2 17    Rupp…    30 M     Port… OR    USA     15'24" 0:30… 0:45… 1:01… 01:04:35
##  3 23    Osak…    25 M     Mach… <NA>  JPN     15'25" 0:30… 0:45… 1:01… 01:04:36
##  4 21    Biwo…    32 M     Mamm… CA    USA     15'25" 0:30… 0:45… 1:01… 01:04:45
##  5 9     Cheb…    31 M     Mara… <NA>  KEN     15'25" 0:30… 0:45… 1:01… 01:04:35
##  6 15    Abdi…    40 M     Phoe… AZ    USA     15'25" 0:30… 0:45… 1:01… 01:04:35
##  7 63    Maiy…    33 M     Colo… CO    USA     15'25" 0:30… 0:45… 1:01… 01:04:36
##  8 7     Sefi…    28 M     Addi… <NA>  ETH     15'24" 0:30… 0:46… 1:02… 01:06:04
##  9 18    Pusk…    27 M     Euge… OR    USA     15'24" 0:30… 0:45… 1:01… 01:04:53
## 10 20    Ward…    28 M     Kays… UT    USA     15'25" 0:30… 0:45… 1:01… 01:04:53
## # … with 26,400 more rows, and 10 more variables: `25K` <time>, `30K` <time>,
## #   `35K` <time>, `40K` <time>, Pace <time>, `Proj Time` <chr>,
## #   `Official Time` <time>, Overall <dbl>, Gender <dbl>, Division <dbl>
```
…
```r
avg_time <-race %>% 
  group_by(Age) %>% 
  summarise(avg_overall_time = mean(as.numeric(Official_Time), na.rm = TRUE),
            avg_overall_time = avg_overall_time/3600) 

avg_time
```

```
## # A tibble: 66 × 2
##      Age avg_overall_time
##    <dbl>            <dbl>
##  1    18             4.30
##  2    19             4.30
##  3    20             3.97
##  4    21             3.84
##  5    22             3.97
##  6    23             3.92
##  7    24             3.98
##  8    25             3.91
##  9    26             3.83
## 10    27             3.94
## # … with 56 more rows
```
…
```r
avg_state %>% 
  arrange()
```

```
## # A tibble: 50 × 2
##    postal avg_overall_time
##    <chr>             <dbl>
##  1 AK                 3.42
##  2 AL                 3.85
##  3 AR                 3.86
##  4 AZ                 3.88
##  5 CA                 3.90
##  6 CO                 3.72
##  7 CT                 3.93
##  8 DE                 3.76
##  9 FL                 4.00
## 10 GA                 3.94
## # … with 40 more rows
```
…
```
## `summarise()` has grouped output by 'postal'. You can override using the
## `.groups` argument.
```


```r
race_usa <- subset(race_usa, !(postal %in% c("AA", "AE","AP","MH","GU","PR","VI","DC")))
race_usa
```

```
## # A tibble: 2,151 × 3
## # Groups:   postal [50]
##    postal   Age avg_overall_time
##    <chr>  <dbl>            <dbl>
##  1 AK        24             3.20
##  2 AK        26             2.68
##  3 AK        27             3.50
##  4 AK        28             3.34
##  5 AK        29             3.70
##  6 AK        30             2.64
##  7 AK        31             2.86
##  8 AK        32             2.67
##  9 AK        35             3.37
## 10 AK        36             3.11
## # … with 2,141 more rows
```
…
